﻿What is your age?,Percentage of Responses,Percentage of MPA Population
10 - 19 years,0.38%,15.40%
20 - 29 years,4.97%,28.52%
30 - 39 years,14.72%,12.33%
40 - 49 years,11.66%,9.22%
50 - 59 years,16.25%,10.01%
60 - 69 years,25.81%,7.79%
70 - 79 years,16.25%,4.08%
80 years or over,9.94%,2.87%
