﻿,Percentage of Respondents,Percentage of Population
White or Caucasian,88.65%,62.08%
Asian,4.31%,13.80%
African American or Black,4.31%,15.25%
Hispanic/Latino,1.37%,5.93%
Two or more races,1.37%,2.94%
