﻿Variable,PABS Respondents,ACS Estimates for the MPA Population,Difference between PABS Respondents and ACS Estimates for the MPA Population
Population: Champaign,54.60%,57.90%,-3.30%
Population: Urbana,25.60%,28.50%,-2.90%
Population: Savoy,7.00%,5.80%,1.20%
Population: Mahomet,10.90%,5.50%,5.40%
Population: Tolono,1.90%,2.00%,-0.10%
Population: Bondville,0.00%,0.30%,-0.30%
Median Age for Population Age 18 and Over,58 years,40 years,18 years
Gender: Female,57.70%,50.20%,7.50%
Gender: Male,40.00%,49.80%,-9.80%
Gender: Non-Binary or Prefer not to Say,2.30%,N/A,N/A
Race: White or Caucasian,89.82%,70.93%,18.89%
Race: Asian,4.89%,14.05%,-9.15%
Race: African American or Black,4.70%,16.18%,-11.49%
Ethnicity: Hispanic/Latino/a,1.96%,6.07%,-4.11%
Employment: Currently Employed,62.90%,62.10%,0.80%
Houshold Size: One-Person Household,26.70%,37.50%,-10.80%
Vehicles Available in Houshold: Zero (0),2.90%,13.40%,-10.50%
